title,price,tags
HiFi Mini Stereo Car Amplifier Treble Bass Booster,Rp88.900,"Jakarta Barat,elektronikmars"
potensio 503/50k stereo,Rp7.500,"Bandung,Toko Wuyen"
PAM8403 5V Two Channel Stereo Audio Amplifier,Rp5.000,"Bandung,WD Electronic"
PAM8610 2x15W 12v Stereo Digital Amplifier,Rp24.900,"Jakarta Barat,MicroLife"
Arylic Up2Stream AMP 2.1 Wireless 2.1 Amplifier (Stereo + Subwoofer),Rp1.800.000,"Tangerang Selatan,Muse Components"
Audio HIFI Bluetooth USB SD MP3 player Remote Control Car Kit Modul,Rp55.000,"Bekasi,mirorim"
Modul PAM8610 2x15W HIFI Stereo Mini Power Digital Amplifier Class D,Rp15.950,"Bekasi,mirorim"
transistor Toshiba 1943 5200,Rp24.000,"Surabaya,muriaelektronik"
Transistor Njw 0302 0281,Rp24.000,"Surabaya,muriaelektronik"
Power amplifier Bluetooth MP3 Fleco BT 858B,Rp218.000,"Jakarta Utara,CV SINAR BARU"
